{
    "count": 6572,
    "next": "http://freesound.org/apiv2/search/text/?&query=cars&page=2",
    "results": [
        {
            "id": 326146,
            "name": "Inside Car Ambience Next to School More Quiet Version.wav",
            "tags": [
                "primary",
                "Next",
                "Environment",
                "Location",
                "Vehicle",
                "Ambience",
                "Public",
                "OWI",
                "Cars",
                "breaktime",
                "cars",
                "School",
                "Car",
                "Inside",
                "Quiet",
                "break",
                "lunch",
                "Road",
                "primary-school",
                "Street",
                "Landscape",
                "Motor",
                "Transport"
            ],
            "license": "http://creativecommons.org/licenses/by-nc/3.0/",
            "username": "15050_Francois"
        },
        {
            "id": 400402,
            "name": "Rain, Car Interior, A.wav",
            "tags": [
                "inside",
                "rainstorm",
                "Interior",
                "car",
                "Rain",
                "Rainstorm",
                "interior",
                "cars",
                "rain",
                "Cars",
                "Vehicle",
                "Inside",
                "Car",
                "Driving",
                "driving",
                "vehicle"
            ],
            "license": "http://creativecommons.org/licenses/by/3.0/",
            "username": "InspectorJ"
        },
        {
            "id": 170992,
            "name": "Nordschleife_Vorkriegsrennwagen_1.wav",
            "tags": [
                "bentley",
                "Vintage",
                "cars",
                "driveby",
                "Cars",
                "mercedes",
                "racing"
            ],
            "license": "http://creativecommons.org/publicdomain/zero/1.0/",
            "username": "jungh001"
        },
        {
            "id": 385285,
            "name": "01 - Cars across_city.wav",
            "tags": [
                "city",
                "urban",
                "traffic",
                "street",
                "cars"
            ],
            "license": "http://creativecommons.org/publicdomain/zero/1.0/",
            "username": "semenov_nick"
        },
        {
            "id": 20049,
            "name": "cars pass by.wav",
            "tags": [
                "cars",
                "effect",
                "field-recording",
                "soundeffect"
            ],
            "license": "http://creativecommons.org/licenses/by/3.0/",
            "username": "FreqMan"
        },
        {
            "id": 73225,
            "name": "Jaguar (Le Man Type Tuned Racing car) StartFastExcel- FlyByandTail(distant in valley behind cheq flag) Dpa4061 x2 00_22.wav",
            "tags": [
                "cars",
                "circuit",
                "flybys",
                "racing",
                "recording",
                "stereo"
            ],
            "license": "http://creativecommons.org/licenses/by-nc/3.0/",
            "username": "leeg1970"
        },
        {
            "id": 175845,
            "name": "110703_17 car horn.WAV",
            "tags": [
                "beep",
                "cars",
                "traffic",
                "city",
                "horns"
            ],
            "license": "http://creativecommons.org/publicdomain/zero/1.0/",
            "username": "toiletrolltube"
        },
        {
            "id": 175855,
            "name": "120218_01 car horn (2).wav",
            "tags": [
                "beep",
                "cars",
                "traffic",
                "city",
                "horns"
            ],
            "license": "http://creativecommons.org/publicdomain/zero/1.0/",
            "username": "toiletrolltube"
        },
        {
            "id": 175854,
            "name": "120216_02 car horn (6).WAV",
            "tags": [
                "beep",
                "cars",
                "traffic",
                "city",
                "horns"
            ],
            "license": "http://creativecommons.org/publicdomain/zero/1.0/",
            "username": "toiletrolltube"
        },
        {
            "id": 175852,
            "name": "120216_02 car horn (5).wav",
            "tags": [
                "beep",
                "cars",
                "traffic",
                "city",
                "horns"
            ],
            "license": "http://creativecommons.org/publicdomain/zero/1.0/",
            "username": "toiletrolltube"
        },
        {
            "id": 175853,
            "name": "120213_02 car horn (4).wav",
            "tags": [
                "beep",
                "cars",
                "traffic",
                "city",
                "horns"
            ],
            "license": "http://creativecommons.org/publicdomain/zero/1.0/",
            "username": "toiletrolltube"
        },
        {
            "id": 175847,
            "name": "120213_01 car horn (2).wav",
            "tags": [
                "beep",
                "cars",
                "traffic",
                "city",
                "horns"
            ],
            "license": "http://creativecommons.org/publicdomain/zero/1.0/",
            "username": "toiletrolltube"
        },
        {
            "id": 175848,
            "name": "110915_04 car horn (2).wav",
            "tags": [
                "beep",
                "cars",
                "traffic",
                "city",
                "horns"
            ],
            "license": "http://creativecommons.org/publicdomain/zero/1.0/",
            "username": "toiletrolltube"
        },
        {
            "id": 175849,
            "name": "110915_04 car horn (1).wav",
            "tags": [
                "beep",
                "cars",
                "traffic",
                "city",
                "horns"
            ],
            "license": "http://creativecommons.org/publicdomain/zero/1.0/",
            "username": "toiletrolltube"
        },
        {
            "id": 175846,
            "name": "120213_01 car horn (3).wav",
            "tags": [
                "beep",
                "cars",
                "traffic",
                "city",
                "horns"
            ],
            "license": "http://creativecommons.org/publicdomain/zero/1.0/",
            "username": "toiletrolltube"
        }
    ],
    "previous": null
}